Project 1
…
Question 3 Parsing

EDU01A_longer <-
  EDU01A_long |>
  mutate(two_digit_year= (substr(EDU_combined, start=8, stop = 9)) ,
  year_dbl = as.double(two_digit_year), 
  year= if_else(year_dbl >25, 1900 + year_dbl, year_dbl <=25 + 2000),
  survey_value = substr(EDU_combined, start=1, stop = 7)
         )
EDU01A_longer

# A tibble: 31,980 × 8
   area_name   STCOU EDU_combined enrollment_value two_digit_year year_dbl  year
   <chr>       <chr> <chr>                   <dbl> <chr>             <dbl> <dbl>
 1 UNITED STA… 00000 EDU010187D           40024299 87                   87  1987
 2 UNITED STA… 00000 EDU010188D           39967624 88                   88  1988
 3 UNITED STA… 00000 EDU010189D           40317775 89                   89  1989
 4 UNITED STA… 00000 EDU010190D           40737600 90                   90  1990
 5 UNITED STA… 00000 EDU010191D           41385442 91                   91  1991
 6 UNITED STA… 00000 EDU010192D           42088151 92                   92  1992
 7 UNITED STA… 00000 EDU010193D           42724710 93                   93  1993
 8 UNITED STA… 00000 EDU010194D           43369917 94                   94  1994
 9 UNITED STA… 00000 EDU010195D           43993459 95                   95  1995
10 UNITED STA… 00000 EDU010196D           44715737 96                   96  1996
# ℹ 31,970 more rows
# ℹ 1 more variable: survey_value <chr>
…
Question 5 County level new variable

county_tibble |>
mutate(state = substr(area_name, nchar(area_name) - 1, nchar(area_name))
)

# A tibble: 31,450 × 6
   area_name   STCOU enrollment_value  year survey_value state
   <chr>       <chr>            <dbl> <dbl> <chr>        <chr>
 1 Autauga, AL 01001             6829  1987 EDU0101      AL   
 2 Autauga, AL 01001             6900  1988 EDU0101      AL   
 3 Autauga, AL 01001             6920  1989 EDU0101      AL   
 4 Autauga, AL 01001             6847  1990 EDU0101      AL   
 5 Autauga, AL 01001             7008  1991 EDU0101      AL   
 6 Autauga, AL 01001             7137  1992 EDU0101      AL   
 7 Autauga, AL 01001             7152  1993 EDU0101      AL   
 8 Autauga, AL 01001             7381  1994 EDU0101      AL   
 9 Autauga, AL 01001             7568  1995 EDU0101      AL   
10 Autauga, AL 01001             7834  1996 EDU0101      AL   
# ℹ 31,440 more rows

Question 6 Non-county “division”

noncounty_tibble |>
  mutate(division = if_else (area_name %in% state.name,
  state.division [match(area_name, state.name)], "ERROR")
  )

# A tibble: 530 × 6
   area_name     STCOU enrollment_value  year survey_value division
   <chr>         <chr>            <dbl> <dbl> <chr>        <chr>   
 1 UNITED STATES 00000         40024299  1987 EDU0101      ERROR   
 2 UNITED STATES 00000         39967624  1988 EDU0101      ERROR   
 3 UNITED STATES 00000         40317775  1989 EDU0101      ERROR   
 4 UNITED STATES 00000         40737600  1990 EDU0101      ERROR   
 5 UNITED STATES 00000         41385442  1991 EDU0101      ERROR   
 6 UNITED STATES 00000         42088151  1992 EDU0101      ERROR   
 7 UNITED STATES 00000         42724710  1993 EDU0101      ERROR   
 8 UNITED STATES 00000         43369917  1994 EDU0101      ERROR   
 9 UNITED STATES 00000         43993459  1995 EDU0101      ERROR   
10 UNITED STATES 00000         44715737  1996 EDU0101      ERROR   
# ℹ 520 more rows
